{
	"student-grades": {
		"name": "Bugs Bunny",
		"full-time": true,
		"courses": [
			{
				"name": "Android", 
				"grade": "A"
			},
			{
				"name": "iOS", 
				"grade": "B+"
			},
			{
				"name": ".Net", 
				"grade": "B"
			},
			{
				"name": "Capstone", 
				"grade": "Pass"
			}
		]},
		"name": "LOLOKOKO",
		"full-time": true,
		"courses": [
			{
				"name": "Android",
				"grade": "F"
			},
			{
				"name": "iOS",
				"grade": "F"
			},
			{
				"name": ".NetOOOOOOOOOOOOOO",
				"grade": "B"
			},
			{
				"name": "Capstone",
				"grade": "Pass"
			}
		]}

student-grades": {
"name": "Bugs Bunny",
"full-time": true,
"courses": [
{
"name": "Android",
"grade": "A"
},
{
"name": "iOS",
"grade": "B+"
},
{
"name": ".Net",
"grade": "B"
},
{
"name": "Capstone",
"grade": "Pass"
}
]},
"name": "LOLOKOKO",
"full-time": true,
"courses": [
{
"name": "Android",
"grade": "F"
},
{
"name": "iOS",
"grade": "F"
},
{
"name": ".NetOOOOOOOOOOOOOO",
"grade": "B"
},
{
"name": "Capstone",
"grade": "Pass"
}
]}

student-grades": {
"name": "Bugs Bunny",
"full-time": true,
"courses": [
{
"name": "Android",
"grade": "A"
},
{
"name": "iOS",
"grade": "B+"
},
{
"name": ".Net",
"grade": "B"
},
{
"name": "Capstone",
"grade": "Pass"
}
]},
"name": "LOLOKOKO",
"full-time": true,
"courses": [
{
"name": "Android",
"grade": "F"
},
{
"name": "iOS",
"grade": "F"
},
{
"name": ".NetOOOOOOOOOOOOOO",
"grade": "B"
},
{
"name": "Capstone",
"grade": "Pass"
}
]}

student-grades": {
"name": "Bugs Bunny",
"full-time": true,
"courses": [
{
"name": "Android",
"grade": "A"
},
{
"name": "iOS",
"grade": "B+"
},
{
"name": ".Net",
"grade": "B"
},
{
"name": "Capstone",
"grade": "Pass"
}
]},
"name": "LOLOKOKO",
"full-time": true,
"courses": [
{
"name": "Android",
"grade": "F"
},
{
"name": "iOS",
"grade": "F"
},
{
"name": ".NetOOOOOOOOOOOOOO",
"grade": "B"
},
{
"name": "Capstone",
"grade": "Pass"
}
]}

student-grades": {
"name": "Bugs Bunny",
"full-time": true,
"courses": [
{
"name": "Android",
"grade": "A"
},
{
"name": "iOS",
"grade": "B+"
},
{
"name": ".Net",
"grade": "B"
},
{
"name": "Capstone",
"grade": "Pass"
}
]},
"name": "LOLOKOKO",
"full-time": true,
"courses": [
{
"name": "Android",
"grade": "F"
},
{
"name": "iOS",
"grade": "F"
},
{
"name": ".NetOOOOOOOOOOOOOO",
"grade": "B"
},
{
"name": "Capstone",
"grade": "Pass"
}
]}

student-grades": {
"name": "Bugs Bunny",
"full-time": true,
"courses": [
{
"name": "Android",
"grade": "A"
},
{
"name": "iOS",
"grade": "B+"
},
{
"name": ".Net",
"grade": "B"
},
{
"name": "Capstone",
"grade": "Pass"
}
]},
"name": "LOLOKOKO",
"full-time": true,
"courses": [
{
"name": "Android",
"grade": "F"
},
{
"name": "iOS",
"grade": "F"
},
{
"name": ".NetOOOOOOOOOOOOOO",
"grade": "B"
},
{
"name": "Capstone",
"grade": "Pass"
}
]}

student-grades": {
"name": "Bugs Bunny",
"full-time": true,
"courses": [
{
"name": "Android",
"grade": "A"
},
{
"name": "iOS",
"grade": "B+"
},
{
"name": ".Net",
"grade": "B"
},
{
"name": "Capstone",
"grade": "Pass"
}
]},
"name": "LOLOKOKO",
"full-time": true,
"courses": [
{
"name": "Android",
"grade": "F"
},
{
"name": "iOS",
"grade": "F"
},
{
"name": ".NetOOOOOOOOOOOOOO",
"grade": "B"
},
{
"name": "Capstone",
"grade": "Pass"
}
]}

student-grades": {
"name": "Bugs Bunny",
"full-time": true,
"courses": [
{
"name": "Android",
"grade": "A"
},
{
"name": "iOS",
"grade": "B+"
},
{
"name": ".Net",
"grade": "B"
},
{
"name": "Capstone",
"grade": "Pass"
}
]},
"name": "LOLOKOKO",
"full-time": true,
"courses": [
{
"name": "Android",
"grade": "F"
},
{
"name": "iOS",
"grade": "F"
},
{
"name": ".NetOOOOOOOOOOOOOO",
"grade": "B"
},
{
"name": "Capstone",
"grade": "Pass"
}
]}

